<?xml version="1.0" encoding="utf-8"?>
<!-- Generator: Adobe Illustrator 17.1.0, SVG Export Plug-In . SVG Version: 6.00 Build 0)  -->
<!DOCTYPE svg PUBLIC "-//W3C//DTD SVG 1.1//EN" "http://www.w3.org/Graphics/SVG/1.1/DTD/svg11.dtd">
<svg version="1.1" id="Capa_1" xmlns="http://www.w3.org/2000/svg" xmlns:xlink="http://www.w3.org/1999/xlink" x="0px" y="0px"
	 viewBox="0 0 105.6 77.2" enable-background="new 0 0 105.6 77.2" xml:space="preserve">
<g>
	<g>
		<g>
			<path fill="#FFFFFF" d="M52.9,55.4c-4.4,0-7.4-1.8-7.6-1.9l-40-21.4c-3.8-2-5.6-4.3-5.5-6.8C0,21.4,4.9,19.2,5.5,19L46.2-0.1
				C53.4-3.5,59.4-0.1,59.7,0c0.2,0.1,33.4,16.6,41.3,20.3c1.2,0.5,4.7,2.2,4.7,5.3c-0.1,3-3.7,4.7-4.7,5.1l-15.5,8.1
				c-0.9,0.5-2.1,0.1-2.6-0.8c-0.5-0.9-0.1-2.1,0.8-2.6l15.5-8.1c0.1,0,0.1-0.1,0.2-0.1c1.1-0.5,2.2-1.3,2.3-1.7l0,0
				c0,0-0.3-0.7-2.4-1.7C91.4,20.1,58.2,3.6,57.8,3.4c-0.3-0.1-4.6-2.5-10,0L7,22.5c-1.4,0.6-3.3,1.9-3.3,3c0,0.6,0.9,1.8,3.4,3.2
				l40.1,21.4c0.3,0.2,5.4,3.1,11.3,0l8.7-5.4c0.9-0.6,2.1-0.3,2.7,0.6c0.6,0.9,0.3,2.1-0.6,2.7l-8.8,5.4
				C57.7,54.9,55.1,55.4,52.9,55.4z"/>
		</g>
		<g>
			<path fill="#FFFFFF" d="M82.6,63.9c-0.8,0-1.6-0.4-2-1.2c-0.6-1.1-0.2-2.5,0.9-3.1l5.9-3.1c0.2-0.3,1.6-1.8,1.6-7v-8.3
				c0-1.3,0.7-2.3,2-2.3s2,1,2,2.3v8.3c0,8.4-2.8,10.5-3.6,11l-5.7,3.1C83.3,63.8,83,63.9,82.6,63.9z"/>
		</g>
		<g>
			<path fill="#FFFFFF" d="M52.4,77.2c-4.3,0-7.5-1.6-8.2-2c-1.7-0.8-19.5-8.9-25.9-12.2c-7.5-4-7.9-9.7-7.9-10
				c0-0.1,0.6-0.2,0.6-0.3V39.7c0-1.3,0.2-2.3,1.5-2.3s1.5,1,1.5,2.3v12.7c0,0.7,1.4,3.9,6.3,6.5c6.5,3.4,25.6,12.1,25.8,12.2
				c0.1,0,0.2,0.1,0.3,0.1c0.2,0.1,5.7,3.3,12.1-0.1l8.7-4.8c1.1-0.6,2.5-0.2,3.1,0.9c0.6,1.1,0.2,2.5-0.9,3.1l-8.8,4.8
				C57.7,76.7,54.8,77.2,52.4,77.2z"/>
		</g>
		<g>
			<path fill="#FFFFFF" d="M76,79.9c-1.3,0-2-1-2-2.3V46.3c0-0.2-0.3-0.4-0.2-0.6c0.1-0.2,1.1-5-2.5-7.2c-5-3.1-21.6-12.2-21.8-12.3
				c-1.1-0.6-1.5-2-0.9-3.1c0.6-1.1,2-1.5,3.1-0.9c0.7,0.4,16.8,9.2,21.9,12.4c5.8,3.6,5.4,10.4,4.4,12v31.1
				C78,78.9,77.3,79.9,76,79.9z"/>
		</g>
	</g>
</g>
</svg>
