<?xml version="1.0" encoding="utf-8"?>
<!-- Generator: Adobe Illustrator 17.1.0, SVG Export Plug-In . SVG Version: 6.00 Build 0)  -->
<!DOCTYPE svg PUBLIC "-//W3C//DTD SVG 1.1//EN" "http://www.w3.org/Graphics/SVG/1.1/DTD/svg11.dtd">
<svg version="1.1" id="Capa_1" xmlns="http://www.w3.org/2000/svg" xmlns:xlink="http://www.w3.org/1999/xlink" x="0px" y="0px"
	 viewBox="0 0 269 269" enable-background="new 0 0 269 269" xml:space="preserve">
<g>
	<g>
		<path d="M201.1,177.5c-3.6,0-6.6-1.3-8.6-2.3c-0.3-0.3-0.5-0.3-0.8-0.5l-23.4-23.9c-1.3-1.5-1.3-3.6,0-5.1c1.5-1.3,3.6-1.3,5.1,0
			l22.9,23.4c1.3,0.8,6.4,2.8,10.7-1.8c4.6-4.6,2.3-9.4,1.8-10.9l-45-44.7c-2.3-0.8-8.9-2.8-22.4-6.6c-25.9,9.9-43.5-3.6-44.2-4.1
			c-0.8-0.8-1.3-1.8-1.3-2.8s0.5-2,1.3-2.8l34.6-27c0.5-0.5,1.3-0.8,1.8-0.8c0.3,0,21.4-2,34.1-2.8c13-0.8,19.3,3.8,20.6,5.1
			l30.5,22.4c1.5,1.3,2,3.3,0.8,5.1c-1.3,1.5-3.3,2-5.1,0.8l-30.8-22.4c-0.3,0-0.3-0.3-0.5-0.3c-0.3,0-4.6-4.1-15.3-3.3
			C156.6,73,139.3,74.5,135,75l-29.7,23.1c6.1,3.1,18.3,6.6,34.3,0.3c0.8-0.3,1.5-0.3,2.3,0c17.8,5.1,24.4,7.1,24.4,7.1
			c0.5,0.3,1,0.5,1.5,0.8l46.8,45.8c0.3,0.3,0.3,0.5,0.5,0.8c2.3,3.8,4.8,12.7-2.5,19.8C209,176.5,204.9,177.5,201.1,177.5z"/>
	</g>
	<g>
		<path d="M182.6,191.5c-4.8,0-8.6-2-8.9-2c-0.3-0.3-0.5-0.3-0.8-0.5L150,166.3c-1.3-1.3-1.5-3.6,0-5.1c1.3-1.3,3.6-1.5,5.1,0
			l22.4,21.9c1.5,0.8,6.9,2.5,10.4-1c5.3-5.3,3.1-8.9,1-11.2c-1.3-1.5-1.3-3.6,0-5.1c1.5-1.3,3.6-1.3,5.1,0c6.1,6.4,5.8,14.2-1,21.1
			C189.7,190.7,185.9,191.5,182.6,191.5z"/>
	</g>
	<g>
		<path d="M162,200.1c-4.6,0-8.4-1.8-8.6-2c-0.3-0.3-0.8-0.5-0.8-0.8l-7.1-6.9c-1.5-1.3-1.5-3.6,0-5.1c1.3-1.5,3.6-1.5,5.1,0
			l6.6,6.4c1.5,0.5,6.4,2.3,9.4-0.8c4.1-4.3,0-8.6,0-8.6c-1.3-1.3-1.5-3.6,0-5.1c1.3-1.3,3.6-1.5,5.1,0c3.1,3.1,7.1,11.4,0.3,18.8
			C168.6,199.1,165,200.1,162,200.1z"/>
	</g>
	<g>
		<path d="M124.3,211c-3.3,0-6.4-1.3-8.6-3.6l-0.5-0.5c-4.8-4.8-4.8-12.5,0-17l21.1-21.1c4.6-4.6,12.5-4.6,17,0l0.5,0.5
			c4.8,4.8,4.8,12.5,0,17l-21.1,21.1C130.4,209.8,127.4,211,124.3,211z M144.9,172.4c-1.3,0-2.5,0.5-3.6,1.5L120.3,195
			c-2,2-2,5.1,0,7.1l0.5,0.5c1.8,1.8,5.1,1.8,7.1,0l21.1-21.1c2-2,2-5.1,0-7.1l-0.5-0.5C147.5,172.9,146.4,172.4,144.9,172.4z"/>
	</g>
	<g>
		<path d="M108.6,200.1c-4.3,0-8.4-1.8-11.4-4.8l-0.5-0.5c-6.4-6.4-6.4-16.5,0-22.9l18.8-19.8c3.1-3.1,7.1-4.8,11.4-4.8
			c4.3,0,8.4,1.8,11.4,4.8l0.5,0.5c3.1,3.1,4.8,7.1,4.8,11.4s-1.8,8.4-4.8,11.4L120,195.3C117,198.3,112.9,200.1,108.6,200.1z
			 M126.9,154.6c-2.3,0-4.6,1-6.4,2.5L101.7,177c-3.6,3.6-3.6,9.2,0,12.7l0.5,0.5c3.3,3.3,9.4,3.3,12.7,0l18.8-19.8
			c1.8-1.8,2.8-4.1,2.8-6.4s-1-4.6-2.5-6.4l-0.5-0.5C131.4,155.6,129.2,154.6,126.9,154.6z"/>
	</g>
	<g>
		<path d="M86.2,185.9c-4.3,0-8.4-1.8-11.4-4.8l-0.5-0.5c-6.4-6.4-6.4-16.5,0-22.9l18.8-19.8c3.1-3.1,7.1-4.8,11.4-4.8
			c4.3,0,8.4,1.8,11.4,4.8l0.5,0.5c3.1,3.1,4.8,7.1,4.8,11.4s-1.8,8.4-4.8,11.4L97.6,181C94.6,184.1,90.5,185.9,86.2,185.9z
			 M104.5,140.3c-2.3,0-4.6,1-6.4,2.5l-18.8,19.8c-3.6,3.6-3.6,9.2,0,12.7l0.5,0.5c3.3,3.3,9.4,3.3,12.7,0l18.8-19.8
			c1.8-1.8,2.8-4.1,2.8-6.4s-1-4.6-2.5-6.4l-0.5-0.5C109.1,141.4,106.8,140.3,104.5,140.3z"/>
	</g>
	<g>
		<path d="M66.4,168.3c-4.3,0-8.4-1.8-11.4-4.8l-0.5-0.5c-3.1-3.1-4.8-7.1-4.8-11.4s1.8-8.4,4.8-11.4l6.4-6.9
			c3.1-3.1,7.1-4.8,11.4-4.8c4.3,0,8.4,1.8,11.4,4.8l0.5,0.5c6.4,6.4,6.4,16.5,0,22.9l-6.4,6.9C74.8,166.5,70.7,168.3,66.4,168.3z
			 M72.2,135.8c-2.3,0-4.6,1-6.4,2.5l-6.4,6.9c-1.8,1.8-2.8,4.1-2.8,6.4s1,4.6,2.5,6.4l0.5,0.5c3.3,3.3,9.4,3.3,12.7,0l6.4-6.9
			c3.6-3.6,3.6-9.4,0-12.7l-0.5-0.5C76.8,136.5,74.5,135.8,72.2,135.8z"/>
	</g>
	<g>
		<path d="M51.9,97.6c-2,0-3.6-1.8-3.6-3.8s1.5-3.8,3.6-3.8c0,0,10.4-0.3,15.8-1.3c5.1-4.6,18.1-12.7,21.4-14
			c3.3-1.3,34.6-5.8,44.2-7.4c2-0.3,3.8,1,4.1,3.1c0.3,2-1,3.8-3.1,4.1c-15.3,2.3-40.2,6.4-42.7,7.1c-2.5,1-16,9.4-19.6,13
			c-0.5,0.5-1,1.3-1.8,1.3C64.3,97.1,52.4,97.6,51.9,97.6L51.9,97.6z"/>
	</g>
	<g>
		<path d="M40.4,179h-13c-1.8,0-3.3-2-3.3-3.8c0-1.8,1.5-3.8,3.3-3.8h13c2.8,0,3.6,0.3,3.6,0c1.5-2,0.5-5.3,0-7.1
			c0-0.3-0.5,0-0.5-0.3V79.6c0-2.3-0.3-2.8-0.3-2.8s0,1.5-0.3,1.5c-0.3,0.3-0.8,1.8-1,1.8H27.5c-1.8,0-3.3-3.3-3.3-5.1
			c0-1.8,1.5-5.1,3.3-5.1h14c1.3,0,2.5-0.5,4.8,1c2.3,1.5,2.5,4.6,2.5,8.6v83.9c5.1,2,3.1,7.9-0.3,12.5C47,177.7,45.5,179,40.4,179z
			"/>
	</g>
	<g>
		<path d="M241.5,179h-13.7c-5.1,0-8.4-1.3-9.9-3.1c-4.1-4.6-3.8-10.7-3.8-12.2V79.6c0-4.3,2.3-6.9,3.8-8.1c3.1-2.3,7.4-1.8,8.9-1.8
			h14.7c1.8,0,3.3,3.3,3.3,5.1c0,1.8-1.5,5.1-3.3,5.1h-15.3c-0.3,0-0.5-1.5-1-1.5c-0.8-0.3-2.3-1-3.1-0.5c-0.5,0.5-0.5,1-0.5,1.8
			V164c0,0.3,0,0.3,0,0.5c-0.3,1.5-0.3,4.3,1.8,6.6c1,1,2.5,0.3,4.3,0.3h13.7c1.8,0,3.3,2,3.3,3.8C244.8,177.2,243.3,179,241.5,179z
			"/>
	</g>
</g>
</svg>
